<svg width="22" height="24" viewBox="0 0 22 24" fill="none" xmlns="http://www.w3.org/2000/svg">
  <path d="M19.6364 2.18182H18.5455V0H16.3636V2.18182H5.45455V0H3.27273V2.18182H2.18182C0.981818 2.18182 0 3.16364 0 4.36364V21.8182C0 23.0182 0.981818 24 2.18182 24H19.6364C20.8364 24 21.8182 23.0182 21.8182 21.8182V4.36364C21.8182 3.16364 20.8364 2.18182 19.6364 2.18182ZM19.6364 21.8182H2.18182V9.81818H19.6364V21.8182ZM19.6364 7.63636H2.18182V4.36364H19.6364V7.63636Z" fill="#373F41"/>
  </svg>
  