<svg width="28" height="28" viewBox="0 0 28 28" fill="none" xmlns="http://www.w3.org/2000/svg">
  <path d="M0 14C0 6.26801 6.26801 0 14 0C21.732 0 28 6.26801 28 14C28 21.732 21.732 28 14 28C6.26801 28 0 21.732 0 14Z" fill="#FFD700"/>
  <path fill-rule="evenodd" clip-rule="evenodd" d="M11.9059 19.3683L8.07621 8.24207L4.58257 18.3526C4.58257 18.3526 4.34031 19.2291 3.56184 19.5642C3.53827 19.5741 3.51448 19.5829 3.49046 19.5915C3.46965 19.5994 3.44837 19.6068 3.42687 19.6138C3.29144 19.6552 3.14915 19.6768 3 19.6768V19.7579H5.95216V19.6768C5.63304 19.6768 5.36081 19.5631 5.13571 19.3359C5.04375 19.2431 4.97146 19.1431 4.91702 19.0357C4.82872 18.8388 4.79943 18.6677 4.82002 18.5555L5.3416 17.0486H8.60808L9.39913 19.3196C9.39913 19.3417 9.40165 19.3577 9.40737 19.3683C9.41263 19.3793 9.4156 19.3955 9.4156 19.4172C9.4156 19.4822 9.3909 19.5419 9.34126 19.5958C9.29184 19.6498 9.22848 19.6768 9.15161 19.6768V19.7579H12.3348V19.6768C12.1257 19.6768 11.9828 19.5741 11.9059 19.3683ZM8.51017 16.7619H5.44088L6.98204 12.3087L8.51017 16.7619Z" fill="black"/>
  <path fill-rule="evenodd" clip-rule="evenodd" d="M24.7024 19.5454C24.7794 19.6218 24.8787 19.6599 25 19.6599V19.7579H24.7684H23.3964H21.5446V19.6599C21.6657 19.6599 21.765 19.6218 21.8423 19.5454C21.9191 19.4689 21.9578 19.3709 21.9578 19.2507V18.0902V13.4461C21.9578 12.9777 21.8732 12.6589 21.704 12.4899C21.5347 12.3209 21.3302 12.2361 21.0901 12.2361C20.9153 12.2361 20.7296 12.2799 20.5333 12.3672C20.3365 12.4543 20.1666 12.5525 20.0235 12.6613C20.1778 12.9884 20.2549 13.3701 20.2549 13.8058V18.3354V19.2507C20.2549 19.3709 20.2918 19.4689 20.3661 19.5454C20.4399 19.6218 20.5353 19.6599 20.6518 19.6599V19.7579H20.4367H19.0482H17.1964V19.6599C17.3175 19.6599 17.4195 19.6218 17.5021 19.5454C17.5849 19.4689 17.6262 19.3709 17.6262 19.2507V18.0902V13.4461C17.6262 13.0651 17.5654 12.7816 17.4443 12.596C17.323 12.4107 17.1716 12.2964 16.9898 12.2529C16.8077 12.2091 16.6149 12.22 16.411 12.2855C16.2069 12.3506 16.0225 12.4325 15.8572 12.5305C15.8902 12.7162 15.9067 12.9176 15.9067 13.1354V16.7655V17.2889V19.2507C15.9067 19.3709 15.9452 19.4689 16.0225 19.5454C16.0996 19.6218 16.1986 19.6599 16.3202 19.6599V19.7579H16.0886H14.7163H12.8647V19.6599C12.9858 19.6599 13.0851 19.6218 13.1622 19.5454C13.2392 19.4689 13.278 19.3709 13.278 19.2507V17.2889V12.2034C13.278 12.0839 13.2392 11.9855 13.1622 11.9093C13.0851 11.8333 12.9858 11.795 12.8647 11.795V11.6968H14.7163C15.036 11.6968 15.2839 11.7539 15.4604 11.8682C15.6366 11.983 15.7579 12.1708 15.8241 12.4325C16.1986 12.2034 16.5928 12.0236 17.0063 11.893C17.4195 11.7623 17.8135 11.6968 18.1882 11.6968C18.5629 11.6968 18.9046 11.7648 19.2133 11.9011C19.5217 12.0374 19.7699 12.2583 19.9575 12.5631C20.3542 12.2799 20.7842 12.0646 21.2469 11.9175C21.7099 11.7703 22.1342 11.6968 22.5201 11.6968C22.8066 11.6968 23.0739 11.7349 23.3218 11.8111C23.57 11.8873 23.7874 12.0102 23.975 12.1792C24.1621 12.3481 24.3111 12.5663 24.4212 12.8333C24.5313 13.1004 24.5866 13.4245 24.5866 13.8058V18.3354V19.2507C24.5866 19.3709 24.6251 19.4689 24.7024 19.5454Z" fill="black"/>
</svg>