<svg width="158" height="22" viewBox="0 0 158 22" fill="none" xmlns="http://www.w3.org/2000/svg">
<path fill-rule="evenodd" clip-rule="evenodd" d="M7.11957 6.66417C8.22271 6.66417 9.21152 6.86489 10.086 7.26591C10.9604 7.66693 11.7045 8.20705 12.3187 8.88583C12.9324 9.56461 13.4062 10.3671 13.7393 11.2924C14.0719 12.2181 14.2391 13.2055 14.2391 14.2549C14.2391 15.3039 14.0719 16.2912 13.7393 17.2169C13.4062 18.1427 12.9324 18.9503 12.3187 19.6389C11.7045 20.3284 10.9604 20.8732 10.086 21.2742C9.21152 21.6752 8.22271 21.876 7.11957 21.876C6.01599 21.876 5.02198 21.6752 4.13756 21.2742C3.25227 20.8732 2.50298 20.3284 1.88925 19.6389C1.27509 18.9503 0.806463 18.1427 0.484224 17.2169C0.161119 16.2912 0 15.3039 0 14.2549C0 13.2055 0.161119 12.2181 0.484224 11.2924C0.806463 10.3671 1.27509 9.56461 1.88925 8.88583C2.50298 8.20705 3.25227 7.66693 4.13756 7.26591C5.02198 6.86489 6.01599 6.66417 7.11957 6.66417ZM9.33669 12.2802C9.33669 10.4082 9.15391 9.04547 8.79009 8.19164C8.42584 7.33824 7.86886 6.91112 7.11957 6.91112C6.37027 6.91112 5.81285 7.33824 5.44904 8.19164C5.08435 9.04547 4.90244 10.4082 4.90244 12.2802V14.2549V16.2604C4.90244 18.1324 5.08435 19.4955 5.44904 20.3489C5.81285 21.2027 6.37027 21.629 7.11957 21.629C7.86886 21.629 8.42584 21.2027 8.79009 20.3489C9.15391 19.4955 9.33669 18.1324 9.33669 16.2604V14.2549V12.2802Z" fill="#1C1B20"/>
<path fill-rule="evenodd" clip-rule="evenodd" d="M58.3032 21.4749C58.4486 21.6192 58.636 21.6911 58.8649 21.6911V21.876H58.4278H55.8387H52.3443V21.6911C52.5728 21.6911 52.7602 21.6192 52.906 21.4749C53.051 21.3307 53.1241 21.1458 53.1241 20.919V18.729V9.9652C53.1241 9.08142 52.9644 8.47967 52.645 8.16083C52.3257 7.84198 51.9397 7.68191 51.4866 7.68191C51.1568 7.68191 50.8063 7.76451 50.4359 7.92929C50.0646 8.09363 49.7439 8.27895 49.4739 8.48438C49.7651 9.10153 49.9105 9.82183 49.9105 10.644V19.1917V20.919C49.9105 21.1458 49.9802 21.3307 50.1204 21.4749C50.2597 21.6192 50.4398 21.6911 50.6596 21.6911V21.876H50.2537H47.6334H44.139V21.6911C44.3675 21.6911 44.56 21.6192 44.7158 21.4749C44.8721 21.3307 44.95 21.1458 44.95 20.919V18.729V9.9652C44.95 9.24619 44.8353 8.71121 44.6068 8.36112C44.3779 8.01146 44.0922 7.79576 43.7491 7.71358C43.4055 7.63098 43.0415 7.65153 42.6568 7.77521C42.2717 7.89804 41.9238 8.05255 41.6117 8.23743C41.6741 8.58795 41.7052 8.968 41.7052 9.37886V16.2292V17.2169V20.919C41.7052 21.1458 41.7779 21.3307 41.9238 21.4749C42.0692 21.6192 42.2561 21.6911 42.4855 21.6911V21.876H42.0484H39.4588H35.9648V21.6911C36.1933 21.6911 36.3807 21.6192 36.5261 21.4749C36.6715 21.3307 36.7447 21.1458 36.7447 20.919V17.2169V7.62028C36.7447 7.39474 36.6715 7.20899 36.5261 7.06519C36.3807 6.92182 36.1933 6.84949 35.9648 6.84949V6.66417H39.4588C40.0621 6.66417 40.5299 6.77202 40.8631 6.98772C41.1954 7.20428 41.4244 7.55865 41.5494 8.05255C42.2561 7.62028 43 7.28089 43.7802 7.03437C44.56 6.78786 45.3035 6.66417 46.0106 6.66417C46.7177 6.66417 47.3625 6.79256 47.945 7.04978C48.527 7.307 48.9953 7.72385 49.3492 8.29906C50.0979 7.76451 50.9093 7.35836 51.7826 7.0806C52.6563 6.80284 53.4569 6.66417 54.1852 6.66417C54.7257 6.66417 55.2303 6.73607 55.6981 6.87987C56.1663 7.02367 56.5765 7.25564 56.9305 7.57449C57.2836 7.89334 57.5649 8.30506 57.7726 8.80879C57.9804 9.31295 58.0847 9.92454 58.0847 10.644V19.1917V20.919C58.0847 21.1458 58.1574 21.3307 58.3032 21.4749Z" fill="#1C1B20"/>
<path fill-rule="evenodd" clip-rule="evenodd" d="M72.035 20.8927C72.035 21.1192 72.1073 21.3046 72.2519 21.4484C72.3964 21.5923 72.5828 21.6642 72.8104 21.6642V21.8495H69.3362C68.674 21.8495 68.1774 21.7258 67.8469 21.4788C67.5156 21.2322 67.2987 20.8208 67.1955 20.2446C66.7815 20.6971 66.2751 21.0623 65.6752 21.3401C65.0754 21.6179 64.4343 21.7879 63.7518 21.8495C63.0896 21.9112 62.4691 21.865 61.8904 21.7108C61.3112 21.5563 60.8095 21.299 60.386 20.9385C59.9618 20.5789 59.636 20.1316 59.4089 19.5964C59.1808 19.0613 59.1089 18.4444 59.1916 17.7444C59.2535 17.1271 59.4291 16.6022 59.7191 16.1703C60.0083 15.7383 60.3598 15.3629 60.7737 15.0439C61.1873 14.725 61.6524 14.4574 62.1696 14.2412C62.6864 14.025 63.2139 13.8354 63.7518 13.6701C64.8478 13.3413 65.6391 13.0121 66.1249 12.6825C66.6107 12.3537 66.9364 12.045 67.1025 11.7565V10.2136C67.1025 9.04059 66.9747 8.1664 66.72 7.59016C66.4648 7.01436 65.9506 6.77762 65.1761 6.87994C64.2264 6.98311 63.6899 7.31232 63.5659 7.86758C63.5035 8.15612 63.5659 8.39757 63.7518 8.59322C63.9381 8.78886 64.1133 8.96867 64.2794 9.13306C64.5066 9.35996 64.6825 9.61682 64.8065 9.90494C64.9308 10.1931 64.9928 10.512 64.9928 10.8618C64.9928 11.5407 64.7531 12.117 64.2746 12.59C63.7953 13.0635 63.2131 13.2998 62.5263 13.2998C61.8396 13.2998 61.257 13.0635 60.7781 12.59C60.2991 12.117 60.0603 11.5407 60.0603 10.8618C60.0603 10.286 60.2152 9.74054 60.5255 9.22596C60.8357 8.7118 61.2647 8.26443 61.8129 7.88342C62.3607 7.50283 62.9966 7.20401 63.7208 6.98825C64.4446 6.77205 65.22 6.66417 66.0474 6.66417C66.8745 6.66417 67.6503 6.77205 68.374 6.98825C69.0978 7.20401 69.7286 7.50283 70.2665 7.88342C70.8043 8.26443 71.2334 8.7118 71.5539 9.22596C71.8745 9.74054 72.035 10.286 72.035 10.8618V19.5656V19.7814V20.5841V20.8927ZM66.7919 20.3987C66.8542 20.337 66.9162 20.2805 66.9782 20.2292C67.0401 20.1778 67.1025 20.1213 67.1645 20.0592C67.1438 19.9154 67.1279 19.7659 67.1176 19.6118C67.1073 19.4569 67.1025 19.298 67.1025 19.1336V17.9602V12.0656C66.8125 12.4355 66.4868 12.7497 66.1249 13.0066C65.763 13.2643 65.4166 13.573 65.0857 13.9326C64.7548 14.293 64.4756 14.7661 64.2484 15.3526C64.0203 15.9387 63.9072 16.7367 63.9072 17.7444C63.9072 18.5266 64.0048 19.1388 64.2015 19.581C64.3981 20.0237 64.646 20.337 64.9463 20.5224C65.2458 20.7069 65.5612 20.7797 65.8925 20.7382C66.223 20.6971 66.5229 20.5841 66.7919 20.3987Z" fill="#1C1B20"/>
<path fill-rule="evenodd" clip-rule="evenodd" d="M84.358 6.94853C84.9384 7.2965 85.3173 7.79209 85.4938 8.43614C85.6694 9.08019 85.5814 9.68851 85.2293 10.2607C84.8762 10.8541 84.3735 11.2374 83.7197 11.4109C83.0668 11.5849 82.4492 11.4982 81.8683 11.1502C81.2672 10.8026 80.8836 10.3019 80.7174 9.64725C80.6345 9.36138 80.6035 9.10572 80.6246 8.88068C80.6449 8.65607 80.676 8.45656 80.7174 8.28258C80.7588 8.10901 80.7847 7.95587 80.7955 7.82272C80.8059 7.69 80.7588 7.58237 80.6557 7.50069C80.5724 7.41902 80.4533 7.38839 80.2979 7.40838C80.1417 7.42923 79.9807 7.47517 79.8155 7.54664C79.6493 7.61853 79.4776 7.71042 79.3019 7.82272C79.1258 7.93545 78.9748 8.04265 78.8505 8.14475C78.9338 8.41062 78.9748 8.79943 78.9748 9.30991V16.1192V17.1002V20.7808C78.9748 21.0058 79.0473 21.19 79.1927 21.3325C79.3382 21.4759 79.525 21.5469 79.7533 21.5469V21.7311H79.317H76.7355H73.2507V21.5469C73.4786 21.5469 73.6655 21.4759 73.8109 21.3325C73.9555 21.19 74.0284 21.0058 74.0284 20.7808V17.1002V7.56195C74.0284 7.33734 73.9555 7.15314 73.8109 7.00979C73.6655 6.86685 73.4786 6.79539 73.2507 6.79539V6.61119H76.7355C77.8968 6.61119 78.5916 7.06126 78.8199 7.96055C79.0689 7.77678 79.4055 7.56706 79.831 7.33181C80.2561 7.09699 80.7226 6.90259 81.2309 6.74902C81.7393 6.59587 82.2675 6.5193 82.8178 6.5193C83.3671 6.5193 83.8807 6.66224 84.358 6.94853Z" fill="#1C1B20"/>
<path fill-rule="evenodd" clip-rule="evenodd" d="M104.48 17.1061V20.7815C104.48 21.0067 104.552 21.1903 104.696 21.3326C104.84 21.4758 105.025 21.5471 105.252 21.5471V21.7311H104.82H102.255H98.7932V21.5471C99.02 21.5471 99.2047 21.4758 99.3496 21.3326C99.4936 21.1903 99.5661 21.0067 99.5661 20.7815V17.1061V4.91516V1.23928C99.5661 1.01453 99.4936 0.83099 99.3496 0.687812C99.2047 0.545484 99.02 0.473683 98.7932 0.473683V0.289719H102.255H104.82H105.252V0.473683C105.025 0.473683 104.84 0.545484 104.696 0.687812C104.552 0.83099 104.48 1.01453 104.48 1.23928V4.91516V17.1061Z" fill="#1C1B20"/>
<path fill-rule="evenodd" clip-rule="evenodd" d="M106.905 11.2248V7.57988C106.905 7.35513 106.833 7.17159 106.689 7.02841C106.545 6.88566 106.36 6.81386 106.133 6.81386V6.63032H109.594H112.159H112.592V6.81386C112.364 6.81386 112.18 6.88566 112.036 7.02841C111.891 7.17159 111.819 7.35513 111.819 7.57988V11.2248V17.1057V20.7815C111.819 21.0063 111.891 21.1903 112.036 21.333C112.18 21.4762 112.364 21.5471 112.592 21.5471V21.7311H112.159H109.594H106.133V21.5471C106.36 21.5471 106.545 21.4762 106.689 21.333C106.833 21.1903 106.905 21.0063 106.905 20.7815V17.1057V11.2248ZM111.819 2.70972C111.819 3.38354 111.577 3.95541 111.093 4.42488C110.609 4.89477 110.027 5.12929 109.347 5.12929C108.687 5.12929 108.115 4.89477 107.632 4.42488C107.148 3.95541 106.905 3.38354 106.905 2.70972C106.905 2.05628 107.148 1.48952 107.632 1.00943C108.115 0.529764 108.687 0.289719 109.347 0.289719C110.027 0.289719 110.609 0.529764 111.093 1.00943C111.577 1.48952 111.819 2.05628 111.819 2.70972Z" fill="#1C1B20"/>
<path fill-rule="evenodd" clip-rule="evenodd" d="M127.446 21.4749C127.59 21.6192 127.777 21.6911 128.005 21.6911V21.876H127.601H124.983H121.492V21.6911C121.715 21.6911 121.902 21.6192 122.055 21.4749C122.206 21.3307 122.283 21.1458 122.283 20.919V18.729V9.9652C122.283 9.24619 122.169 8.71121 121.941 8.36112C121.712 8.01146 121.428 7.79576 121.085 7.71358C120.743 7.63098 120.38 7.65153 119.997 7.77521C119.613 7.89804 119.266 8.05255 118.955 8.23743C119.017 8.58795 119.048 8.968 119.048 9.37886V16.2292V17.2169V20.919C119.048 21.1458 119.122 21.3307 119.27 21.4749C119.417 21.6192 119.607 21.6911 119.839 21.6911V21.876H119.403H116.815H113.326V21.6911C113.554 21.6911 113.74 21.6192 113.885 21.4749C114.03 21.3307 114.103 21.1458 114.103 20.919V17.2169V7.62028C114.103 7.39474 114.03 7.20899 113.885 7.06519C113.74 6.92182 113.554 6.84949 113.326 6.84949V6.66417H116.809C117.41 6.66417 117.877 6.77202 118.209 6.98772C118.54 7.20428 118.768 7.55865 118.893 8.05255C119.6 7.62028 120.344 7.28089 121.125 7.03437C121.905 6.78786 122.649 6.66417 123.356 6.66417C123.877 6.66417 124.376 6.73607 124.855 6.87987C125.333 7.02367 125.745 7.25564 126.088 7.57449C126.431 7.89334 126.707 8.30506 126.915 8.80879C127.123 9.31295 127.228 9.92454 127.228 10.644V19.1917V20.919C127.228 21.1458 127.3 21.3307 127.446 21.4749Z" fill="#1C1B20"/>
<path fill-rule="evenodd" clip-rule="evenodd" d="M143.006 21.333C143.151 21.4762 143.338 21.5476 143.566 21.5476V21.7311H143.161H140.543H137.052V21.5476C137.275 21.5476 137.462 21.4762 137.615 21.333C137.767 21.1898 137.843 21.0063 137.843 20.7811V18.6071V9.90726C137.843 9.21389 137.734 8.69811 137.516 8.36077C137.299 8.02344 137.024 7.80931 136.692 7.71796C136.36 7.62534 136.008 7.63129 135.635 7.73326C135.261 7.83522 134.919 7.97755 134.608 8.16194V16.1255V17.1061V20.7811C134.608 21.0063 134.682 21.1898 134.83 21.333C134.978 21.4762 135.167 21.5476 135.399 21.5476V21.7311H134.963H132.375H128.886V21.5476C129.114 21.5476 129.3 21.4762 129.445 21.333C129.59 21.1898 129.663 21.0063 129.663 20.7811V17.1061V7.059V4.91474V1.2397C129.663 1.01495 129.59 0.83099 129.445 0.688237C129.3 0.545484 129.114 0.473258 128.886 0.473258V0.289719H132.369C133.198 0.289719 133.779 0.494076 134.111 0.902366C134.442 1.31108 134.608 2.0053 134.608 2.98503V4.85356V6.90563L134.62 7.91637C135.472 7.40654 136.376 7.03861 137.332 6.81429C138.288 6.58911 139.172 6.55937 139.982 6.72167C140.793 6.88609 141.463 7.27356 141.993 7.88621C142.523 8.49885 142.788 9.39785 142.788 10.5811V19.0664V20.7811C142.788 21.0063 142.86 21.1898 143.006 21.333Z" fill="#1C1B20"/>
<path fill-rule="evenodd" clip-rule="evenodd" d="M150.538 6.66417C151.642 6.66417 152.63 6.86489 153.505 7.26591C154.379 7.66693 155.123 8.20705 155.738 8.88583C156.351 9.56461 156.826 10.3671 157.158 11.2924C157.491 12.2181 157.658 13.2055 157.658 14.2549C157.658 15.3039 157.491 16.2912 157.158 17.2169C156.826 18.1427 156.351 18.9503 155.738 19.6389C155.123 20.3284 154.379 20.8732 153.505 21.2742C152.63 21.6752 151.642 21.876 150.538 21.876C149.435 21.876 148.441 21.6752 147.556 21.2742C146.671 20.8732 145.922 20.3284 145.308 19.6389C144.694 18.9503 144.225 18.1427 143.903 17.2169C143.58 16.2912 143.419 15.3039 143.419 14.2549C143.419 13.2055 143.58 12.2181 143.903 11.2924C144.225 10.3671 144.694 9.56461 145.308 8.88583C145.922 8.20705 146.671 7.66693 147.556 7.26591C148.441 6.86489 149.435 6.66417 150.538 6.66417ZM152.755 12.2802C152.755 10.4082 152.573 9.04547 152.209 8.19164C151.845 7.33824 151.288 6.91112 150.538 6.91112C149.789 6.91112 149.232 7.33824 148.868 8.19164C148.504 9.04547 148.322 10.4082 148.322 12.2802V14.2549V16.2604C148.322 18.1324 148.504 19.4955 148.868 20.3489C149.232 21.2027 149.789 21.629 150.538 21.629C151.288 21.629 151.845 21.2027 152.209 20.3489C152.573 19.4955 152.755 18.1324 152.755 16.2604V14.2549V12.2802Z" fill="#1C1B20"/>
<path fill-rule="evenodd" clip-rule="evenodd" d="M95.541 15.211C94.8531 15.211 94.2641 15.4524 93.7749 15.936C93.2848 16.4196 93.0393 16.9905 93.0393 17.6483C93.0393 18.3276 93.29 18.9135 93.7901 19.4074C93.9571 19.5717 94.1284 19.7515 94.3058 19.947C94.4831 20.1426 94.5404 20.3849 94.4779 20.6725C94.3734 21.0632 94.1076 21.3311 93.6808 21.4745C93.2531 21.6187 92.8728 21.6906 92.5393 21.6906C92.06 21.6906 91.648 21.6033 91.3041 21.4279C90.9601 21.2541 90.6734 20.9554 90.444 20.5334C90.215 20.1122 90.0424 19.5567 89.9288 18.8672C89.8138 18.1786 89.7561 17.309 89.7561 16.2604V14.2544V12.6499H98.7929C98.7929 11.951 98.626 11.241 98.2929 10.5212C97.9589 9.80128 97.4896 9.15845 96.8859 8.59266C96.2805 8.02687 95.5618 7.56422 94.7278 7.20386C93.8942 6.84435 92.9773 6.66417 91.9763 6.66417C90.8712 6.66417 89.8759 6.86447 88.9902 7.26591C88.1041 7.66693 87.3534 8.20705 86.7388 8.8854C86.1238 9.56418 85.6545 10.3666 85.3323 11.2924C85.0087 12.2181 84.8474 13.2055 84.8474 14.2544C84.8474 15.3034 85.0087 16.2904 85.3323 17.2165C85.6545 18.1422 86.1238 18.9494 86.7388 19.6389C87.3534 20.3284 88.1041 20.8728 88.9902 21.2742C89.8759 21.6752 90.8712 21.876 91.9763 21.876C92.8099 21.876 93.5919 21.7673 94.3214 21.5515C95.0509 21.3358 95.6871 21.0328 96.2293 20.6412C96.771 20.2509 97.203 19.8032 97.5265 19.2995C97.8496 18.7958 98.011 18.2454 98.011 17.6483C98.011 16.9905 97.7663 16.4196 97.2767 15.936C96.7862 15.4524 96.2076 15.211 95.541 15.211ZM91.3201 7.03437C91.3613 7.01383 91.4398 6.98302 91.5547 6.94193C91.6684 6.90084 91.8093 6.87987 91.9763 6.87987C92.1429 6.87987 92.2786 6.90084 92.3831 6.94193C92.4868 6.98302 92.5601 7.01383 92.6021 7.03437C92.9773 7.26078 93.274 7.56935 93.493 7.9601C93.7116 8.35085 93.8729 8.79296 93.9779 9.28685C94.082 9.78031 94.144 10.305 94.1652 10.8605C94.1804 11.28 94.1891 11.6917 94.193 12.0991H89.7579C89.7674 10.5866 89.8915 9.44092 90.1313 8.6697C90.3816 7.86723 90.778 7.32241 91.3201 7.03437Z" fill="#1C1B20"/>
<path fill-rule="evenodd" clip-rule="evenodd" d="M34.568 20.9959L27.3411 0L20.7484 19.0792C20.7484 19.0792 20.2912 20.7333 18.8222 21.3656C18.7777 21.3843 18.7328 21.4009 18.6875 21.4171C18.6482 21.4319 18.6081 21.446 18.5675 21.4591C18.3119 21.5373 18.0434 21.5781 17.762 21.5781V21.7311H23.3329V21.5781C22.7307 21.5781 22.217 21.3635 21.7922 20.9347C21.6187 20.7596 21.4822 20.5709 21.3795 20.3682C21.2129 19.9968 21.1576 19.6738 21.1965 19.4621L22.1807 16.6186H28.3448L29.8375 20.9041C29.8375 20.9458 29.8423 20.9759 29.8531 20.9959C29.863 21.0167 29.8686 21.0473 29.8686 21.0881C29.8686 21.211 29.822 21.3236 29.7283 21.4251C29.6351 21.5271 29.5155 21.5781 29.3705 21.5781V21.7311H35.3774V21.5781C34.9828 21.5781 34.713 21.3843 34.568 20.9959ZM28.16 16.0776H22.3681L25.2763 7.67394L28.16 16.0776Z" fill="#1C1B20"/>
</svg>
